%YAML 1.1
%TAG !u! tag:unity3d.com,2011:
--- !u!114 &11400000
MonoBehaviour:
  m_ObjectHideFlags: 0
  m_CorrespondingSourceObject: {fileID: 0}
  m_PrefabInstance: {fileID: 0}
  m_PrefabAsset: {fileID: 0}
  m_GameObject: {fileID: 0}
  m_Enabled: 1
  m_EditorHideFlags: 0
  m_Script: {fileID: 0}
  m_Name: Built In Data
  m_EditorClassIdentifier: Unity.Addressables.Editor:UnityEditor.AddressableAssets.Settings:AddressableAssetGroup
  m_GroupName: Built In Data
  m_Data:
    m_SerializedData: []
  m_GUID: 7fcb07f017bd21b49a4badb1a0a0ab57
  m_SerializeEntries:
  - m_GUID: EditorSceneList
    m_Address: EditorSceneList
    m_ReadOnly: 1
    m_SerializedLabels: []
    m_mainAssetType: 
  - m_GUID: Resources
    m_Address: Resources
    m_ReadOnly: 1
    m_SerializedLabels: []
    m_mainAssetType: 
  m_ReadOnly: 1
  m_Settings: {fileID: 11400000, guid: d09225c2179fbb84ab16b865aa4e6985, type: 2}
  m_SchemaSet:
    m_Schemas:
    - {fileID: 11400000, guid: c165d377b65669f45a32ec77eec66e7a, type: 2}
