%YAML 1.1
%TAG !u! tag:unity3d.com,2011:
--- !u!114 &11400000
MonoBehaviour:
  m_ObjectHideFlags: 0
  m_CorrespondingSourceObject: {fileID: 0}
  m_PrefabInstance: {fileID: 0}
  m_PrefabAsset: {fileID: 0}
  m_GameObject: {fileID: 0}
  m_Enabled: 1
  m_EditorHideFlags: 0
  m_Script: {fileID: 11500000, guid: bbb281ee3bf0b054c82ac2347e9e782c, type: 3}
  m_Name: Localization-Locales
  m_EditorClassIdentifier: 
  m_GroupName: Localization-Locales
  m_Data:
    m_SerializedData: []
  m_GUID: dc4e185f9300bf14388d6051b53d5987
  m_SerializeEntries:
  - m_GUID: 51c40325cb5371b4d88959ae5a67736c
    m_Address: Polish (pl)
    m_ReadOnly: 1
    m_SerializedLabels:
    - Locale
    m_mainAssetType: UnityEngine.Localization.Locale, Unity.Localization, Version=0.0.0.0,
      Culture=neutral, PublicKeyToken=null
  - m_GUID: f06344e4973b45040b145a09f028b29a
    m_Address: English (en)
    m_ReadOnly: 1
    m_SerializedLabels:
    - Locale
    m_mainAssetType: UnityEngine.Localization.Locale, Unity.Localization, Version=0.0.0.0,
      Culture=neutral, PublicKeyToken=null
  m_ReadOnly: 1
  m_Settings: {fileID: 11400000, guid: d09225c2179fbb84ab16b865aa4e6985, type: 2}
  m_SchemaSet:
    m_Schemas:
    - {fileID: 11400000, guid: 41a7f31919c07a24ab8f78af1945be15, type: 2}
    - {fileID: 11400000, guid: 4bcae24d22bdd2b43a36f541277492ce, type: 2}
