%YAML 1.1
%TAG !u! tag:unity3d.com,2011:
--- !u!1 &1674488683415016585
GameObject:
  m_ObjectHideFlags: 0
  m_CorrespondingSourceObject: {fileID: 0}
  m_PrefabInstance: {fileID: 0}
  m_PrefabAsset: {fileID: 0}
  serializedVersion: 6
  m_Component:
  - component: {fileID: 167814308969143091}
  - component: {fileID: 7083585788334529058}
  m_Layer: 31
  m_Name: Environment2D_ICE
  m_TagString: Untagged
  m_Icon: {fileID: 0}
  m_NavMeshLayer: 0
  m_StaticEditorFlags: 0
  m_IsActive: 1
--- !u!4 &167814308969143091
Transform:
  m_ObjectHideFlags: 0
  m_CorrespondingSourceObject: {fileID: 0}
  m_PrefabInstance: {fileID: 0}
  m_PrefabAsset: {fileID: 0}
  m_GameObject: {fileID: 1674488683415016585}
  m_LocalRotation: {x: 0, y: 0, z: 0, w: 1}
  m_LocalPosition: {x: 0, y: 0, z: 0}
  m_LocalScale: {x: 1, y: 1, z: 1}
  m_Children:
  - {fileID: 8007665735765444611}
  m_Father: {fileID: 0}
  m_RootOrder: 0
  m_LocalEulerAnglesHint: {x: 0, y: 0, z: 0}
--- !u!156049354 &7083585788334529058
Grid:
  m_ObjectHideFlags: 0
  m_CorrespondingSourceObject: {fileID: 0}
  m_PrefabInstance: {fileID: 0}
  m_PrefabAsset: {fileID: 0}
  m_GameObject: {fileID: 1674488683415016585}
  m_Enabled: 1
  m_CellSize: {x: 0.5, y: 0.5, z: 0}
  m_CellGap: {x: 0, y: 0, z: 0}
  m_CellLayout: 0
  m_CellSwizzle: 0
--- !u!1 &6505848597139762797
GameObject:
  m_ObjectHideFlags: 0
  m_CorrespondingSourceObject: {fileID: 0}
  m_PrefabInstance: {fileID: 0}
  m_PrefabAsset: {fileID: 0}
  serializedVersion: 6
  m_Component:
  - component: {fileID: 8007665735765444611}
  - component: {fileID: 9030579918372001559}
  - component: {fileID: 2203083593550213850}
  m_Layer: 31
  m_Name: Layer1
  m_TagString: Untagged
  m_Icon: {fileID: 0}
  m_NavMeshLayer: 0
  m_StaticEditorFlags: 0
  m_IsActive: 1
--- !u!4 &8007665735765444611
Transform:
  m_ObjectHideFlags: 0
  m_CorrespondingSourceObject: {fileID: 0}
  m_PrefabInstance: {fileID: 0}
  m_PrefabAsset: {fileID: 0}
  m_GameObject: {fileID: 6505848597139762797}
  m_LocalRotation: {x: -0, y: -0, z: -0, w: 1}
  m_LocalPosition: {x: 0, y: 0, z: 0}
  m_LocalScale: {x: 1, y: 1, z: 1}
  m_Children: []
  m_Father: {fileID: 167814308969143091}
  m_RootOrder: 0
  m_LocalEulerAnglesHint: {x: 0, y: 0, z: 0}
--- !u!1839735485 &9030579918372001559
Tilemap:
  m_ObjectHideFlags: 0
  m_CorrespondingSourceObject: {fileID: 0}
  m_PrefabInstance: {fileID: 0}
  m_PrefabAsset: {fileID: 0}
  m_GameObject: {fileID: 6505848597139762797}
  m_Enabled: 1
  m_Tiles:
  - first: {x: 0, y: -2, z: 0}
    second:
      serializedVersion: 2
      m_TileIndex: 21
      m_TileSpriteIndex: 21
      m_TileMatrixIndex: 0
      m_TileColorIndex: 0
      m_TileObjectToInstantiateIndex: 65535
      m_AllTileFlags: 1073741825
  - first: {x: -6, y: 0, z: 0}
    second:
      serializedVersion: 2
      m_TileIndex: 19
      m_TileSpriteIndex: 19
      m_TileMatrixIndex: 0
      m_TileColorIndex: 0
      m_TileObjectToInstantiateIndex: 65535
      m_AllTileFlags: 1073741825
  - first: {x: -4, y: 0, z: 0}
    second:
      serializedVersion: 2
      m_TileIndex: 2
      m_TileSpriteIndex: 15
      m_TileMatrixIndex: 0
      m_TileColorIndex: 0
      m_TileObjectToInstantiateIndex: 65535
      m_AllTileFlags: 1073741825
  - first: {x: -2, y: 0, z: 0}
    second:
      serializedVersion: 2
      m_TileIndex: 1
      m_TileSpriteIndex: 13
      m_TileMatrixIndex: 0
      m_TileColorIndex: 0
      m_TileObjectToInstantiateIndex: 65535
      m_AllTileFlags: 1073741825
  - first: {x: 0, y: 0, z: 0}
    second:
      serializedVersion: 2
      m_TileIndex: 0
      m_TileSpriteIndex: 12
      m_TileMatrixIndex: 0
      m_TileColorIndex: 0
      m_TileObjectToInstantiateIndex: 65535
      m_AllTileFlags: 1073741825
  - first: {x: 2, y: 0, z: 0}
    second:
      serializedVersion: 2
      m_TileIndex: 13
      m_TileSpriteIndex: 6
      m_TileMatrixIndex: 0
      m_TileColorIndex: 0
      m_TileObjectToInstantiateIndex: 65535
      m_AllTileFlags: 1073741825
  - first: {x: 4, y: 0, z: 0}
    second:
      serializedVersion: 2
      m_TileIndex: 12
      m_TileSpriteIndex: 5
      m_TileMatrixIndex: 0
      m_TileColorIndex: 0
      m_TileObjectToInstantiateIndex: 65535
      m_AllTileFlags: 1073741825
  - first: {x: -6, y: 2, z: 0}
    second:
      serializedVersion: 2
      m_TileIndex: 9
      m_TileSpriteIndex: 2
      m_TileMatrixIndex: 0
      m_TileColorIndex: 0
      m_TileObjectToInstantiateIndex: 65535
      m_AllTileFlags: 1073741825
  - first: {x: -4, y: 2, z: 0}
    second:
      serializedVersion: 2
      m_TileIndex: 3
      m_TileSpriteIndex: 11
      m_TileMatrixIndex: 0
      m_TileColorIndex: 0
      m_TileObjectToInstantiateIndex: 65535
      m_AllTileFlags: 1073741825
  - first: {x: -2, y: 2, z: 0}
    second:
      serializedVersion: 2
      m_TileIndex: 5
      m_TileSpriteIndex: 10
      m_TileMatrixIndex: 0
      m_TileColorIndex: 0
      m_TileObjectToInstantiateIndex: 65535
      m_AllTileFlags: 1073741825
  - first: {x: 0, y: 2, z: 0}
    second:
      serializedVersion: 2
      m_TileIndex: 4
      m_TileSpriteIndex: 9
      m_TileMatrixIndex: 0
      m_TileColorIndex: 0
      m_TileObjectToInstantiateIndex: 65535
      m_AllTileFlags: 1073741825
  - first: {x: 2, y: 2, z: 0}
    second:
      serializedVersion: 2
      m_TileIndex: 14
      m_TileSpriteIndex: 14
      m_TileMatrixIndex: 0
      m_TileColorIndex: 0
      m_TileObjectToInstantiateIndex: 65535
      m_AllTileFlags: 1073741825
  - first: {x: 4, y: 2, z: 0}
    second:
      serializedVersion: 2
      m_TileIndex: 15
      m_TileSpriteIndex: 7
      m_TileMatrixIndex: 0
      m_TileColorIndex: 0
      m_TileObjectToInstantiateIndex: 65535
      m_AllTileFlags: 1073741825
  - first: {x: -6, y: 4, z: 0}
    second:
      serializedVersion: 2
      m_TileIndex: 20
      m_TileSpriteIndex: 20
      m_TileMatrixIndex: 0
      m_TileColorIndex: 0
      m_TileObjectToInstantiateIndex: 65535
      m_AllTileFlags: 1073741825
  - first: {x: -4, y: 4, z: 0}
    second:
      serializedVersion: 2
      m_TileIndex: 11
      m_TileSpriteIndex: 4
      m_TileMatrixIndex: 0
      m_TileColorIndex: 0
      m_TileObjectToInstantiateIndex: 65535
      m_AllTileFlags: 1073741825
  - first: {x: -2, y: 4, z: 0}
    second:
      serializedVersion: 2
      m_TileIndex: 6
      m_TileSpriteIndex: 8
      m_TileMatrixIndex: 0
      m_TileColorIndex: 0
      m_TileObjectToInstantiateIndex: 65535
      m_AllTileFlags: 1073741825
  - first: {x: 2, y: 4, z: 0}
    second:
      serializedVersion: 2
      m_TileIndex: 10
      m_TileSpriteIndex: 3
      m_TileMatrixIndex: 0
      m_TileColorIndex: 0
      m_TileObjectToInstantiateIndex: 65535
      m_AllTileFlags: 1073741825
  - first: {x: 6, y: 4, z: 0}
    second:
      serializedVersion: 2
      m_TileIndex: 16
      m_TileSpriteIndex: 16
      m_TileMatrixIndex: 0
      m_TileColorIndex: 0
      m_TileObjectToInstantiateIndex: 65535
      m_AllTileFlags: 1073741825
  - first: {x: 9, y: 4, z: 0}
    second:
      serializedVersion: 2
      m_TileIndex: 22
      m_TileSpriteIndex: 22
      m_TileMatrixIndex: 0
      m_TileColorIndex: 0
      m_TileObjectToInstantiateIndex: 65535
      m_AllTileFlags: 1073741825
  - first: {x: 3, y: 6, z: 0}
    second:
      serializedVersion: 2
      m_TileIndex: 8
      m_TileSpriteIndex: 1
      m_TileMatrixIndex: 0
      m_TileColorIndex: 0
      m_TileObjectToInstantiateIndex: 65535
      m_AllTileFlags: 2147483648
  - first: {x: -4, y: 7, z: 0}
    second:
      serializedVersion: 2
      m_TileIndex: 18
      m_TileSpriteIndex: 18
      m_TileMatrixIndex: 0
      m_TileColorIndex: 0
      m_TileObjectToInstantiateIndex: 65535
      m_AllTileFlags: 1073741825
  - first: {x: -2, y: 7, z: 0}
    second:
      serializedVersion: 2
      m_TileIndex: 7
      m_TileSpriteIndex: 0
      m_TileMatrixIndex: 0
      m_TileColorIndex: 0
      m_TileObjectToInstantiateIndex: 65535
      m_AllTileFlags: 1073741825
  - first: {x: 0, y: 7, z: 0}
    second:
      serializedVersion: 2
      m_TileIndex: 17
      m_TileSpriteIndex: 17
      m_TileMatrixIndex: 0
      m_TileColorIndex: 0
      m_TileObjectToInstantiateIndex: 65535
      m_AllTileFlags: 1073741825
  m_AnimatedTiles:
  - first: {x: 3, y: 6, z: 0}
    second:
      m_AnimatedSprites:
      - {fileID: 21300000, guid: e289a84ad1672964bb3aed21ce685311, type: 3}
      - {fileID: 21300000, guid: 58bf411f706b6a3499667a48762ac696, type: 3}
      - {fileID: 21300000, guid: fa0b054782bb09945928b3d2c41262d1, type: 3}
      - {fileID: 21300000, guid: 814a3779d2b542849b9e9978f2f31b75, type: 3}
      - {fileID: 21300000, guid: 545902f9bcbdc3143aa5eb410205a89c, type: 3}
      - {fileID: 21300000, guid: 8e764deeafac3d44f85af8fcd852a609, type: 3}
      - {fileID: 21300000, guid: 6a87064cd8228d840abbc3e6c74e2813, type: 3}
      - {fileID: 21300000, guid: a27152b22665a7c4cbeb8d67469f00ba, type: 3}
      - {fileID: 21300000, guid: d7f75db7a1f2f20439b3b690b610f7cf, type: 3}
      - {fileID: 21300000, guid: 7c5ae033efdeb3c45a1871998ae79653, type: 3}
      - {fileID: 21300000, guid: decc1674bf323bd4b87c7d50b8aa412d, type: 3}
      - {fileID: 21300000, guid: 4b1ac5efeff015e4294471cdfdd8e968, type: 3}
      m_AnimationSpeed: 0.65338933
      m_AnimationTimeOffset: 0
      m_IsLooping: 1
  m_TileAssetArray:
  - m_RefCount: 1
    m_Data: {fileID: 11400000, guid: 74c7ae0309422784e934fb5ec2a72560, type: 2}
  - m_RefCount: 1
    m_Data: {fileID: 11400000, guid: ba705044417703f439f82244a62bafe0, type: 2}
  - m_RefCount: 1
    m_Data: {fileID: 11400000, guid: 520bfb1f20bdd1f4db0094d6b634990e, type: 2}
  - m_RefCount: 1
    m_Data: {fileID: 11400000, guid: 39f36828e755ec34288ce50fd6098d3a, type: 2}
  - m_RefCount: 1
    m_Data: {fileID: 11400000, guid: babe16fc2e4c20d43906bf17a0fd2db9, type: 2}
  - m_RefCount: 1
    m_Data: {fileID: 11400000, guid: d692870b385b46c47916c61bcd8f1dd4, type: 2}
  - m_RefCount: 1
    m_Data: {fileID: 11400000, guid: 87e85aafbf8ffd640b611d4e93051fb7, type: 2}
  - m_RefCount: 1
    m_Data: {fileID: 11400000, guid: bac9f9c93749cbc478e1020b9429ff83, type: 2}
  - m_RefCount: 1
    m_Data: {fileID: 11400000, guid: 4ac1917e9b05bea41903dde9eb2de084, type: 2}
  - m_RefCount: 1
    m_Data: {fileID: 11400000, guid: 73a444f2c7d13ab4d84222d823100553, type: 2}
  - m_RefCount: 1
    m_Data: {fileID: 11400000, guid: 1528b5602a7dd674db284ba51e146ec1, type: 2}
  - m_RefCount: 1
    m_Data: {fileID: 11400000, guid: 2adb26c54e66c544198344248e950922, type: 2}
  - m_RefCount: 1
    m_Data: {fileID: 11400000, guid: ac93306da6e599c4abe5df92170935b6, type: 2}
  - m_RefCount: 1
    m_Data: {fileID: 11400000, guid: 39537755a2b19264a8bbaca749feba62, type: 2}
  - m_RefCount: 1
    m_Data: {fileID: 11400000, guid: 9cd0d58913f0268419f4e8b9116b755c, type: 2}
  - m_RefCount: 1
    m_Data: {fileID: 11400000, guid: 6179be082cc18f44da9fae3a50e02b20, type: 2}
  - m_RefCount: 1
    m_Data: {fileID: 11400000, guid: 6e556dff7ab72d945b157b853e82edaf, type: 2}
  - m_RefCount: 1
    m_Data: {fileID: 11400000, guid: ee7e6e9062177a841b7e8999455ef555, type: 2}
  - m_RefCount: 1
    m_Data: {fileID: 11400000, guid: 9932a939bc859ae4f941bc0bc8c1b342, type: 2}
  - m_RefCount: 1
    m_Data: {fileID: 11400000, guid: eab5287329a833b44aad9bee17f80325, type: 2}
  - m_RefCount: 1
    m_Data: {fileID: 11400000, guid: 2373f8ed5550f494385a35a37dfcd2ec, type: 2}
  - m_RefCount: 1
    m_Data: {fileID: 11400000, guid: 3c1796d28ba2c9a4c860ae67d7e89be2, type: 2}
  - m_RefCount: 1
    m_Data: {fileID: 11400000, guid: ccb86c0fdee981b4792bfe8d976e084e, type: 2}
  m_TileSpriteArray:
  - m_RefCount: 1
    m_Data: {fileID: 21300000, guid: 6a87064cd8228d840abbc3e6c74e2813, type: 3}
  - m_RefCount: 1
    m_Data: {fileID: 21300000, guid: 4b1ac5efeff015e4294471cdfdd8e968, type: 3}
  - m_RefCount: 1
    m_Data: {fileID: 21300000, guid: d3b087bf1d5dc864aadae7da743880cc, type: 3}
  - m_RefCount: 1
    m_Data: {fileID: 21300000, guid: 38eae788cb9dac3409881037992d9cb3, type: 3}
  - m_RefCount: 1
    m_Data: {fileID: 21300000, guid: c92c85cc2ec1eb94bb2180b4ae69e2fb, type: 3}
  - m_RefCount: 1
    m_Data: {fileID: 21300000, guid: 64299c270c9766c4c838e0d36e9a7388, type: 3}
  - m_RefCount: 1
    m_Data: {fileID: 21300000, guid: e978e10d6eb8fb940af99d42ec98561e, type: 3}
  - m_RefCount: 1
    m_Data: {fileID: 21300000, guid: 29f66a5c37e279a44aca9fa390d8a90f, type: 3}
  - m_RefCount: 1
    m_Data: {fileID: 21300000, guid: a4625dcfa6c2dae4a9dd8367071ea731, type: 3}
  - m_RefCount: 1
    m_Data: {fileID: 21300000, guid: 7d156453016798e46b3c3d4856b7724a, type: 3}
  - m_RefCount: 1
    m_Data: {fileID: 21300000, guid: 2ddee7b6b7fd5794485196e8446fe62e, type: 3}
  - m_RefCount: 1
    m_Data: {fileID: 21300000, guid: 39cb3bf84f36b7c41962e29bda4ddc9e, type: 3}
  - m_RefCount: 1
    m_Data: {fileID: 21300000, guid: 637c5e66a793f2946a99a1c4c37c298a, type: 3}
  - m_RefCount: 1
    m_Data: {fileID: 21300000, guid: 39cfcaa1808105d40846203f44a0952b, type: 3}
  - m_RefCount: 1
    m_Data: {fileID: 21300000, guid: c8c5b58b11512bf428229c035a3dc877, type: 3}
  - m_RefCount: 1
    m_Data: {fileID: 21300000, guid: 3c8ce5d5cc60ed34fa185a8564f2e1d1, type: 3}
  - m_RefCount: 1
    m_Data: {fileID: 21300000, guid: 74c9573b69ee5fd47bf148ffe0b9b8d5, type: 3}
  - m_RefCount: 1
    m_Data: {fileID: 21300000, guid: a27152b22665a7c4cbeb8d67469f00ba, type: 3}
  - m_RefCount: 1
    m_Data: {fileID: 21300000, guid: 814a3779d2b542849b9e9978f2f31b75, type: 3}
  - m_RefCount: 1
    m_Data: {fileID: 21300000, guid: 939c8591b17d3e640a0eba6113d83a9c, type: 3}
  - m_RefCount: 1
    m_Data: {fileID: 21300000, guid: 0ce2169061b4f314b978b844a0f59570, type: 3}
  - m_RefCount: 1
    m_Data: {fileID: 21300000, guid: 7af617671d4441045b5b0605c5de7902, type: 3}
  - m_RefCount: 1
    m_Data: {fileID: 21300000, guid: 04a62b092f8c0114887379450b3c6f44, type: 3}
  m_TileMatrixArray:
  - m_RefCount: 23
    m_Data:
      e00: 1
      e01: 0
      e02: 0
      e03: 0
      e10: 0
      e11: 1
      e12: 0
      e13: 0
      e20: 0
      e21: 0
      e22: 1
      e23: 0
      e30: 0
      e31: 0
      e32: 0
      e33: 1
  m_TileColorArray:
  - m_RefCount: 23
    m_Data: {r: 1, g: 1, b: 1, a: 1}
  m_TileObjectToInstantiateArray: []
  m_AnimationFrameRate: 1
  m_Color: {r: 1, g: 1, b: 1, a: 1}
  m_Origin: {x: -6, y: -2, z: 0}
  m_Size: {x: 16, y: 10, z: 1}
  m_TileAnchor: {x: 0.5, y: 0.5, z: 0}
  m_TileOrientation: 0
  m_TileOrientationMatrix:
    e00: 1
    e01: 0
    e02: 0
    e03: 0
    e10: 0
    e11: 1
    e12: 0
    e13: 0
    e20: 0
    e21: 0
    e22: 1
    e23: 0
    e30: 0
    e31: 0
    e32: 0
    e33: 1
--- !u!483693784 &2203083593550213850
TilemapRenderer:
  m_ObjectHideFlags: 0
  m_CorrespondingSourceObject: {fileID: 0}
  m_PrefabInstance: {fileID: 0}
  m_PrefabAsset: {fileID: 0}
  m_GameObject: {fileID: 6505848597139762797}
  m_Enabled: 0
  m_CastShadows: 0
  m_ReceiveShadows: 0
  m_DynamicOccludee: 0
  m_MotionVectors: 1
  m_LightProbeUsage: 0
  m_ReflectionProbeUsage: 0
  m_RayTracingMode: 0
  m_RenderingLayerMask: 1
  m_RendererPriority: 0
  m_Materials:
  - {fileID: 10754, guid: 0000000000000000f000000000000000, type: 0}
  m_StaticBatchInfo:
    firstSubMesh: 0
    subMeshCount: 0
  m_StaticBatchRoot: {fileID: 0}
  m_ProbeAnchor: {fileID: 0}
  m_LightProbeVolumeOverride: {fileID: 0}
  m_ScaleInLightmap: 1
  m_ReceiveGI: 1
  m_PreserveUVs: 0
  m_IgnoreNormalsForChartDetection: 0
  m_ImportantGI: 0
  m_StitchLightmapSeams: 1
  m_SelectedEditorRenderState: 0
  m_MinimumChartSize: 4
  m_AutoUVMaxDistance: 0.5
  m_AutoUVMaxAngle: 89
  m_LightmapParameters: {fileID: 0}
  m_SortingLayerID: 0
  m_SortingLayer: 0
  m_SortingOrder: 0
  m_ChunkSize: {x: 32, y: 32, z: 32}
  m_ChunkCullingBounds: {x: 0, y: 0, z: 0}
  m_MaxChunkCount: 16
  m_MaxFrameAge: 16
  m_SortOrder: 0
  m_Mode: 0
  m_DetectChunkCullingBounds: 0
  m_MaskInteraction: 0
--- !u!114 &7513318146694212607
MonoBehaviour:
  m_ObjectHideFlags: 0
  m_CorrespondingSourceObject: {fileID: 0}
  m_PrefabInstance: {fileID: 0}
  m_PrefabAsset: {fileID: 0}
  m_GameObject: {fileID: 0}
  m_Enabled: 1
  m_EditorHideFlags: 0
  m_Script: {fileID: 12395, guid: 0000000000000000e000000000000000, type: 0}
  m_Name: Palette Settings
  m_EditorClassIdentifier: 
  cellSizing: 0
