id,text,file,node,lineNumber
line:07d2aec,Helena: Słyszałeś to?,level3_chaseStart,Level3_Dialogue1_Start,6
line:09fb33d,Dalej:,level3_chaseStart,Level3_Dialogue1_Start,8
line:0b8b864,"Ty: Chodzi ci o ten odległy ryk? Tak, słyszę go od dłuższej chwili.",level3_chaseStart,Level3_Dialogue1_A,15
line:059ae17,Dalej:,level3_chaseStart,Level3_Dialogue1_A,17
line:01432f3,"Joe: Helena, co ty wyprawiasz?",level3_chaseStart,Level3_Dialogue1_B,26
line:0e05796,Dalej:,level3_chaseStart,Level3_Dialogue1_B,28
line:023352f,"Helena: To jest przybysz z innej planety, niezwykła istota. Nie godzę się na to, by trafił w ręcę trepów czy innych psycholi.",level3_chaseStart,Level3_Dialogue1_C,35
line:056c41d,Dalej:,level3_chaseStart,Level3_Dialogue1_C,37
line:05136e8,"Joe: Nawet jeśli to prawda, w co wątpie, to skąd wiesz, że nie stanowi zagrożenia?",level3_chaseStart,Level3_Dialogue1_D,44
line:09d6e29,Dalej:,level3_chaseStart,Level3_Dialogue1_D,46
line:0e102ae,Helena: Nie wiem. Nie wygląda na groźnego.,level3_chaseStart,Level3_Dialogue1_E,53
line:010412c,Dalej:,level3_chaseStart,Level3_Dialogue1_E,55
line:0f1343b,Joe: Nie wygłupiaj się. Nie możesz go tak po prostu porwać.,level3_chaseStart,Level3_Dialogue1_F,62
line:03858a7,Dalej:,level3_chaseStart,Level3_Dialogue1_F,64
line:0fd28a3,Ty: Nikt mnie nie porwał. Uciekłem z Heleną z własnej woli i z nią zamierzam póki co pozostać.,level3_chaseStart,Level3_Dialogue1_G,71
line:08120ad,Dalej:,level3_chaseStart,Level3_Dialogue1_G,73
line:0ac0917,Helena: Sami słyszeliście. Zostawcie nas w spokoju.,level3_chaseStart,Level3_Dialogue1_H,80
line:0b86437,Dalej:,level3_chaseStart,Level3_Dialogue1_H,82
line:0bd3256,Joe: Dosyć tych wygłupów.,level3_chaseStart,Level3_Dialogue1_I,89
line:02ec5ab,Dalej:,level3_chaseStart,Level3_Dialogue1_I,91
line:0c18e2e,Helena: Nie złapiecie nas!,level3_chaseStart,Level3_Dialogue1_J,98
