%YAML 1.1
%TAG !u! tag:unity3d.com,2011:
--- !u!1045 &1
EditorBuildSettings:
  m_ObjectHideFlags: 0
  serializedVersion: 2
  m_Scenes:
  - enabled: 1
    path: Assets/Scenes/Splash Screen.unity
    guid: 9fc0d4010bbf28b4594072e72b8655ab
  - enabled: 1
    path: Assets/Scenes/Start Menu.unity
    guid: 903d7765381988b4f9dab818339e3105
  - enabled: 1
    path: Assets/Scenes/IntroScene.unity
    guid: 0a99589db738b644388bc283f3bdcb0f
  - enabled: 1
    path: Assets/Scenes/Level_1_2D.unity
    guid: 905dc8805cef5044580b5b862c0ba1a1
  - enabled: 1
    path: Assets/Scenes/Level_2_2D.unity
    guid: bb8e1707aa71e0644a817b4240e7319c
  - enabled: 1
    path: Assets/Scenes/Level_3_2D.unity
    guid: 93d013f3a5f691f4bb69b966db75c6f1
  - enabled: 1
    path: Assets/Scenes/Level_4_3D.unity
    guid: d10b53389cfea7041a7b97cf0b02bed7
  m_configObjects:
    com.unity.addressableassets: {fileID: 11400000, guid: c5bcdb8e02ad09b46a0b5c0a93d0c68b,
      type: 2}
    com.unity.localization.settings: {fileID: 11400000, guid: 810064384be05ab4fbac9f72552c1793,
      type: 2}
