id,text,file,node,lineNumber
line:0608244,You've found boiler room. It's really hot and dry in here.,level2_boilerRoom,Level2_Dialogue3_Start,6
line:09c3cde,Wait here:,level2_boilerRoom,Level2_Dialogue3_Start,8
line:0d6f859,Leave:,level2_boilerRoom,Level2_Dialogue3_Start,9
line:00b7d1f,After few minutes you've finally got rid of all the annoying moisture.,level2_boilerRoom,Level2_Dialogue3_A,18
line:0bacce0,Continue:,level2_boilerRoom,Level2_Dialogue3_A,20
line:0fbe3f5,Empty Text,level2_boilerRoom,Level2_Dialogue3_B,27
